%YAML 1.1
%TAG !u! tag:unity3d.com,2011:
--- !u!21 &2100000
Material:
  serializedVersion: 6
  m_ObjectHideFlags: 0
  m_CorrespondingSourceObject: {fileID: 0}
  m_PrefabInstance: {fileID: 0}
  m_PrefabAsset: {fileID: 0}
  m_Name: ayi_Material
  m_Shader: {fileID: 4800000, guid: 522f03282fd79be47b306e2ef4b593fd, type: 3}
  m_ShaderKeywords: _USE8NEIGHBOURHOOD_ON
  m_LightmapFlags: 4
  m_EnableInstancingVariants: 0
  m_DoubleSidedGI: 0
  m_CustomRenderQueue: -1
  stringTagMap: {}
  disabledShaderPasses: []
  m_SavedProperties:
    serializedVersion: 3
    m_TexEnvs:
    - _MainTex:
        m_Texture: {fileID: 2800000, guid: 76a984f86c5af49e3ab1a61d3b4c6912, type: 3}
        m_Scale: {x: 1, y: 1}
        m_Offset: {x: 0, y: 0}
    m_Floats:
    - _Cutoff: 0.1
    - _OutlineMipLevel: 0
    - _OutlineReferenceTexWidth: 1024
    - _OutlineSmoothness: 1
    - _OutlineWidth: 3
    - _StencilComp: 8
    - _StencilRef: 1
    - _StraightAlphaInput: 0
    - _ThresholdEnd: 0.25
    - _Use8Neighbourhood: 1
    m_Colors:
    - _Black: {r: 0, g: 0, b: 0, a: 0}
    - _Color: {r: 1, g: 1, b: 1, a: 1}
    - _OutlineColor: {r: 1, g: 1, b: 0, a: 1}
  m_BuildTextureStacks: []
