%YAML 1.1
%TAG !u! tag:unity3d.com,2011:
--- !u!114 &11400000
MonoBehaviour:
  m_ObjectHideFlags: 0
  m_CorrespondingSourceObject: {fileID: 0}
  m_PrefabInstance: {fileID: 0}
  m_PrefabAsset: {fileID: 0}
  m_GameObject: {fileID: 0}
  m_Enabled: 1
  m_EditorHideFlags: 0
  m_Script: {fileID: 11500000, guid: f6e4e4fc705376343a3e65b25d94f0e2, type: 3}
  m_Name: PBricks
  m_EditorClassIdentifier: 
  m_Sprites:
  - {fileID: 989559716572380934, guid: 6444c5f7a57d14aa7acceef14bc77dcc, type: 3}
  - {fileID: 746078737504272877, guid: 6444c5f7a57d14aa7acceef14bc77dcc, type: 3}
  - {fileID: 1186377063249450843, guid: 6444c5f7a57d14aa7acceef14bc77dcc, type: 3}
  - {fileID: -8117688260031070987, guid: 6444c5f7a57d14aa7acceef14bc77dcc, type: 3}
  - {fileID: -3072142192512209996, guid: 6444c5f7a57d14aa7acceef14bc77dcc, type: 3}
  - {fileID: -5951749579383370945, guid: 6444c5f7a57d14aa7acceef14bc77dcc, type: 3}
  - {fileID: 5991452701142656699, guid: 6444c5f7a57d14aa7acceef14bc77dcc, type: 3}
  - {fileID: 2550894522647835952, guid: 6444c5f7a57d14aa7acceef14bc77dcc, type: 3}
  - {fileID: 3305526883597801276, guid: 6444c5f7a57d14aa7acceef14bc77dcc, type: 3}
  - {fileID: 5015345271620044131, guid: 6444c5f7a57d14aa7acceef14bc77dcc, type: 3}
  - {fileID: -2323044163068506238, guid: 6444c5f7a57d14aa7acceef14bc77dcc, type: 3}
  - {fileID: -817079093382656992, guid: 6444c5f7a57d14aa7acceef14bc77dcc, type: 3}
  - {fileID: -988073137602320327, guid: 6444c5f7a57d14aa7acceef14bc77dcc, type: 3}
  - {fileID: -4104412351702638517, guid: 6444c5f7a57d14aa7acceef14bc77dcc, type: 3}
  - {fileID: 5364284959551500227, guid: 6444c5f7a57d14aa7acceef14bc77dcc, type: 3}
