%YAML 1.1
%TAG !u! tag:unity3d.com,2011:
--- !u!114 &11400000
MonoBehaviour:
  m_ObjectHideFlags: 0
  m_CorrespondingSourceObject: {fileID: 0}
  m_PrefabInstance: {fileID: 0}
  m_PrefabAsset: {fileID: 0}
  m_GameObject: {fileID: 0}
  m_Enabled: 1
  m_EditorHideFlags: 0
  m_Script: {fileID: 11500000, guid: f0582e831bc2c4529a62263038de94b6, type: 3}
  m_Name: Values
  m_EditorClassIdentifier: 
  max_level: 200
  total_level_of_a_map: 1e0000003200000064000000c8000000
  map_bgs:
  - {fileID: 21300000, guid: b4dda42cb88974aadae4d7d4665bb4bc, type: 3}
  - {fileID: 21300000, guid: 1e9ad9fb019f0473c9e7c1209afe2699, type: 3}
  - {fileID: 21300000, guid: c2e181a0c2b274c38abf9ddcfdaa9003, type: 3}
  - {fileID: 21300000, guid: 6a1b0d512fd9341688fa1005e77bc17f, type: 3}
  critical1_value: 5
  critical2_value: 7
  critical3_value: 9
  critical_k_value: 1.2
  critical_2k_value: 1.3
  critical_3k_value: 1.4
