%YAML 1.1
%TAG !u! tag:unity3d.com,2011:
--- !u!181963792 &2655988077585873504
Preset:
  m_ObjectHideFlags: 0
  m_CorrespondingSourceObject: {fileID: 0}
  m_PrefabInstance: {fileID: 0}
  m_PrefabAsset: {fileID: 0}
  m_Name: Physics2DSettings
  m_TargetType:
    m_NativeTypeID: 19
    m_ManagedTypePPtr: {fileID: 0}
    m_ManagedTypeFallback: 
  m_Properties:
  - target: {fileID: 0}
    propertyPath: m_Gravity.x
    value: 0
    objectReference: {fileID: 0}
  - target: {fileID: 0}
    propertyPath: m_Gravity.y
    value: -9.81
    objectReference: {fileID: 0}
  - target: {fileID: 0}
    propertyPath: m_DefaultMaterial
    value: 
    objectReference: {fileID: 0}
  - target: {fileID: 0}
    propertyPath: m_VelocityIterations
    value: 8
    objectReference: {fileID: 0}
  - target: {fileID: 0}
    propertyPath: m_PositionIterations
    value: 5
    objectReference: {fileID: 0}
  - target: {fileID: 0}
    propertyPath: m_VelocityThreshold
    value: 1
    objectReference: {fileID: 0}
  - target: {fileID: 0}
    propertyPath: m_MaxLinearCorrection
    value: 0.2
    objectReference: {fileID: 0}
  - target: {fileID: 0}
    propertyPath: m_MaxAngularCorrection
    value: 8
    objectReference: {fileID: 0}
  - target: {fileID: 0}
    propertyPath: m_MaxTranslationSpeed
    value: 100
    objectReference: {fileID: 0}
  - target: {fileID: 0}
    propertyPath: m_MaxRotationSpeed
    value: 360
    objectReference: {fileID: 0}
  - target: {fileID: 0}
    propertyPath: m_BaumgarteScale
    value: 0.2
    objectReference: {fileID: 0}
  - target: {fileID: 0}
    propertyPath: m_BaumgarteTimeOfImpactScale
    value: 0.75
    objectReference: {fileID: 0}
  - target: {fileID: 0}
    propertyPath: m_TimeToSleep
    value: 0.5
    objectReference: {fileID: 0}
  - target: {fileID: 0}
    propertyPath: m_LinearSleepTolerance
    value: 0.01
    objectReference: {fileID: 0}
  - target: {fileID: 0}
    propertyPath: m_AngularSleepTolerance
    value: 2
    objectReference: {fileID: 0}
  - target: {fileID: 0}
    propertyPath: m_DefaultContactOffset
    value: 0.01
    objectReference: {fileID: 0}
  - target: {fileID: 0}
    propertyPath: m_JobOptions.useMultithreading
    value: 0
    objectReference: {fileID: 0}
  - target: {fileID: 0}
    propertyPath: m_JobOptions.useConsistencySorting
    value: 0
    objectReference: {fileID: 0}
  - target: {fileID: 0}
    propertyPath: m_JobOptions.m_InterpolationPosesPerJob
    value: 100
    objectReference: {fileID: 0}
  - target: {fileID: 0}
    propertyPath: m_JobOptions.m_NewContactsPerJob
    value: 30
    objectReference: {fileID: 0}
  - target: {fileID: 0}
    propertyPath: m_JobOptions.m_CollideContactsPerJob
    value: 100
    objectReference: {fileID: 0}
  - target: {fileID: 0}
    propertyPath: m_JobOptions.m_ClearFlagsPerJob
    value: 200
    objectReference: {fileID: 0}
  - target: {fileID: 0}
    propertyPath: m_JobOptions.m_ClearBodyForcesPerJob
    value: 200
    objectReference: {fileID: 0}
  - target: {fileID: 0}
    propertyPath: m_JobOptions.m_SyncDiscreteFixturesPerJob
    value: 50
    objectReference: {fileID: 0}
  - target: {fileID: 0}
    propertyPath: m_JobOptions.m_SyncContinuousFixturesPerJob
    value: 50
    objectReference: {fileID: 0}
  - target: {fileID: 0}
    propertyPath: m_JobOptions.m_FindNearestContactsPerJob
    value: 100
    objectReference: {fileID: 0}
  - target: {fileID: 0}
    propertyPath: m_JobOptions.m_UpdateTriggerContactsPerJob
    value: 100
    objectReference: {fileID: 0}
  - target: {fileID: 0}
    propertyPath: m_JobOptions.m_IslandSolverCostThreshold
    value: 100
    objectReference: {fileID: 0}
  - target: {fileID: 0}
    propertyPath: m_JobOptions.m_IslandSolverBodyCostScale
    value: 1
    objectReference: {fileID: 0}
  - target: {fileID: 0}
    propertyPath: m_JobOptions.m_IslandSolverContactCostScale
    value: 10
    objectReference: {fileID: 0}
  - target: {fileID: 0}
    propertyPath: m_JobOptions.m_IslandSolverJointCostScale
    value: 10
    objectReference: {fileID: 0}
  - target: {fileID: 0}
    propertyPath: m_JobOptions.m_IslandSolverBodiesPerJob
    value: 50
    objectReference: {fileID: 0}
  - target: {fileID: 0}
    propertyPath: m_JobOptions.m_IslandSolverContactsPerJob
    value: 50
    objectReference: {fileID: 0}
  - target: {fileID: 0}
    propertyPath: m_SimulationMode
    value: 0
    objectReference: {fileID: 0}
  - target: {fileID: 0}
    propertyPath: m_QueriesHitTriggers
    value: 0
    objectReference: {fileID: 0}
  - target: {fileID: 0}
    propertyPath: m_QueriesStartInColliders
    value: 0
    objectReference: {fileID: 0}
  - target: {fileID: 0}
    propertyPath: m_CallbacksOnDisable
    value: 0
    objectReference: {fileID: 0}
  - target: {fileID: 0}
    propertyPath: m_ReuseCollisionCallbacks
    value: 1
    objectReference: {fileID: 0}
  - target: {fileID: 0}
    propertyPath: m_AutoSyncTransforms
    value: 0
    objectReference: {fileID: 0}
  - target: {fileID: 0}
    propertyPath: m_AlwaysShowColliders
    value: 0
    objectReference: {fileID: 0}
  - target: {fileID: 0}
    propertyPath: m_ShowColliderSleep
    value: 1
    objectReference: {fileID: 0}
  - target: {fileID: 0}
    propertyPath: m_ShowColliderContacts
    value: 0
    objectReference: {fileID: 0}
  - target: {fileID: 0}
    propertyPath: m_ShowColliderAABB
    value: 0
    objectReference: {fileID: 0}
  - target: {fileID: 0}
    propertyPath: m_ContactArrowScale
    value: 0.2
    objectReference: {fileID: 0}
  - target: {fileID: 0}
    propertyPath: m_ColliderAwakeColor.r
    value: 0.5686275
    objectReference: {fileID: 0}
  - target: {fileID: 0}
    propertyPath: m_ColliderAwakeColor.g
    value: 0.95686275
    objectReference: {fileID: 0}
  - target: {fileID: 0}
    propertyPath: m_ColliderAwakeColor.b
    value: 0.54509807
    objectReference: {fileID: 0}
  - target: {fileID: 0}
    propertyPath: m_ColliderAwakeColor.a
    value: 0.7529412
    objectReference: {fileID: 0}
  - target: {fileID: 0}
    propertyPath: m_ColliderAsleepColor.r
    value: 0.5686275
    objectReference: {fileID: 0}
  - target: {fileID: 0}
    propertyPath: m_ColliderAsleepColor.g
    value: 0.95686275
    objectReference: {fileID: 0}
  - target: {fileID: 0}
    propertyPath: m_ColliderAsleepColor.b
    value: 0.54509807
    objectReference: {fileID: 0}
  - target: {fileID: 0}
    propertyPath: m_ColliderAsleepColor.a
    value: 0.36078432
    objectReference: {fileID: 0}
  - target: {fileID: 0}
    propertyPath: m_ColliderContactColor.r
    value: 1
    objectReference: {fileID: 0}
  - target: {fileID: 0}
    propertyPath: m_ColliderContactColor.g
    value: 0
    objectReference: {fileID: 0}
  - target: {fileID: 0}
    propertyPath: m_ColliderContactColor.b
    value: 1
    objectReference: {fileID: 0}
  - target: {fileID: 0}
    propertyPath: m_ColliderContactColor.a
    value: 0.6862745
    objectReference: {fileID: 0}
  - target: {fileID: 0}
    propertyPath: m_ColliderAABBColor.r
    value: 1
    objectReference: {fileID: 0}
  - target: {fileID: 0}
    propertyPath: m_ColliderAABBColor.g
    value: 1
    objectReference: {fileID: 0}
  - target: {fileID: 0}
    propertyPath: m_ColliderAABBColor.b
    value: 0
    objectReference: {fileID: 0}
  - target: {fileID: 0}
    propertyPath: m_ColliderAABBColor.a
    value: 0.2509804
    objectReference: {fileID: 0}
  - target: {fileID: 0}
    propertyPath: m_LayerCollisionMatrix.Array.size
    value: 32
    objectReference: {fileID: 0}
  - target: {fileID: 0}
    propertyPath: m_LayerCollisionMatrix.Array.data[0]
    value: 4294836232
    objectReference: {fileID: 0}
  - target: {fileID: 0}
    propertyPath: m_LayerCollisionMatrix.Array.data[1]
    value: 4294836232
    objectReference: {fileID: 0}
  - target: {fileID: 0}
    propertyPath: m_LayerCollisionMatrix.Array.data[2]
    value: 4294836232
    objectReference: {fileID: 0}
  - target: {fileID: 0}
    propertyPath: m_LayerCollisionMatrix.Array.data[3]
    value: 4294967295
    objectReference: {fileID: 0}
  - target: {fileID: 0}
    propertyPath: m_LayerCollisionMatrix.Array.data[4]
    value: 4294836232
    objectReference: {fileID: 0}
  - target: {fileID: 0}
    propertyPath: m_LayerCollisionMatrix.Array.data[5]
    value: 4294836232
    objectReference: {fileID: 0}
  - target: {fileID: 0}
    propertyPath: m_LayerCollisionMatrix.Array.data[6]
    value: 4294934728
    objectReference: {fileID: 0}
  - target: {fileID: 0}
    propertyPath: m_LayerCollisionMatrix.Array.data[7]
    value: 4294934984
    objectReference: {fileID: 0}
  - target: {fileID: 0}
    propertyPath: m_LayerCollisionMatrix.Array.data[8]
    value: 4294935432
    objectReference: {fileID: 0}
  - target: {fileID: 0}
    propertyPath: m_LayerCollisionMatrix.Array.data[9]
    value: 4294936328
    objectReference: {fileID: 0}
  - target: {fileID: 0}
    propertyPath: m_LayerCollisionMatrix.Array.data[10]
    value: 4294938120
    objectReference: {fileID: 0}
  - target: {fileID: 0}
    propertyPath: m_LayerCollisionMatrix.Array.data[11]
    value: 4294941704
    objectReference: {fileID: 0}
  - target: {fileID: 0}
    propertyPath: m_LayerCollisionMatrix.Array.data[12]
    value: 4294948872
    objectReference: {fileID: 0}
  - target: {fileID: 0}
    propertyPath: m_LayerCollisionMatrix.Array.data[13]
    value: 4294963208
    objectReference: {fileID: 0}
  - target: {fileID: 0}
    propertyPath: m_LayerCollisionMatrix.Array.data[14]
    value: 4294959112
    objectReference: {fileID: 0}
  - target: {fileID: 0}
    propertyPath: m_LayerCollisionMatrix.Array.data[15]
    value: 4294868936
    objectReference: {fileID: 0}
  - target: {fileID: 0}
    propertyPath: m_LayerCollisionMatrix.Array.data[16]
    value: 4294868936
    objectReference: {fileID: 0}
  - target: {fileID: 0}
    propertyPath: m_LayerCollisionMatrix.Array.data[17]
    value: 4294967295
    objectReference: {fileID: 0}
  - target: {fileID: 0}
    propertyPath: m_LayerCollisionMatrix.Array.data[18]
    value: 4294967295
    objectReference: {fileID: 0}
  - target: {fileID: 0}
    propertyPath: m_LayerCollisionMatrix.Array.data[19]
    value: 4294967295
    objectReference: {fileID: 0}
  - target: {fileID: 0}
    propertyPath: m_LayerCollisionMatrix.Array.data[20]
    value: 4294967295
    objectReference: {fileID: 0}
  - target: {fileID: 0}
    propertyPath: m_LayerCollisionMatrix.Array.data[21]
    value: 4294967295
    objectReference: {fileID: 0}
  - target: {fileID: 0}
    propertyPath: m_LayerCollisionMatrix.Array.data[22]
    value: 4294967295
    objectReference: {fileID: 0}
  - target: {fileID: 0}
    propertyPath: m_LayerCollisionMatrix.Array.data[23]
    value: 4294967295
    objectReference: {fileID: 0}
  - target: {fileID: 0}
    propertyPath: m_LayerCollisionMatrix.Array.data[24]
    value: 4294967295
    objectReference: {fileID: 0}
  - target: {fileID: 0}
    propertyPath: m_LayerCollisionMatrix.Array.data[25]
    value: 4294967295
    objectReference: {fileID: 0}
  - target: {fileID: 0}
    propertyPath: m_LayerCollisionMatrix.Array.data[26]
    value: 4294967295
    objectReference: {fileID: 0}
  - target: {fileID: 0}
    propertyPath: m_LayerCollisionMatrix.Array.data[27]
    value: 4294967295
    objectReference: {fileID: 0}
  - target: {fileID: 0}
    propertyPath: m_LayerCollisionMatrix.Array.data[28]
    value: 4294967295
    objectReference: {fileID: 0}
  - target: {fileID: 0}
    propertyPath: m_LayerCollisionMatrix.Array.data[29]
    value: 4294967295
    objectReference: {fileID: 0}
  - target: {fileID: 0}
    propertyPath: m_LayerCollisionMatrix.Array.data[30]
    value: 4294967295
    objectReference: {fileID: 0}
  - target: {fileID: 0}
    propertyPath: m_LayerCollisionMatrix.Array.data[31]
    value: 4294967295
    objectReference: {fileID: 0}
  m_ExcludedProperties: []
