33
##
- - - - - - - - -
- - - - I - - - -
- - - I L I - - -
- - I L 2 L I - -
- I L 2 B 2 L I -
I L 2 - - - 2 L I
L 2 - - - - - 2 L
2 - - - - - - - 2
- - - - - - - - -
###
- - - - - - - - -
- - - - - - - - -
- - - - - - - - -
- - - - L - - - -
- - - L - L - - -
- - L - - - L - -
- L - - - - - L -
L - - - - - - - L
- - - - - - - - -
