35
#
- - - - - - - - -
- X - X - X - X -
- - - - - - - - -
- - - - - - - - -
- - - - - - - - -
- - - - - - - - -
- - - - - - - - -
- - - - - - - - -
- - - - - - - - -
##
- - - - - - - - -
* - * - * - * - *
- - - - - - - - -
- - - - - - - - -
- - - - - - - - -
- - - - - - - - -
- - - - - - - - -
S S S S S S S S S
- - - - - - - - -
