22
##
L - a - - - b - L
- L a - - - b L -
- - a - - - b - -
- - a 0 - 0 b - -
c c c - I - d d d
- - b 0 - 0 a - -
- - b - - - a - -
- L b - - - a L -
L - b - - - a - L
###
- - - - - - - - -
- - - - - - - - -
- - - - - - - - -
- - - L - L - - -
- - - - - - - - -
- - - L - L - - -
- - - - - - - - -
- - - - - - - - -
- - - - - - - - -
