30
#
X - X - X - X - X
X - X - X - X - X
- - - - - - - - -
- - - - - - - - -
- - - - - - - - -
- - - - - - - - -
- - - - - - - - -
- - - - - - - - -
- - - - - - - - -
##
- * - * - * - * -
- * - * - * - * -
- - - - - - - - -
- - - - - - - - -
- - - - - - - - -
- - - - - - - - -
- - - - - - - - -
- - - - - - - - -
- - - - - - - - -
###
- - - - - - - - -
- - - - - - - - -
- - - - - - - - -
- - - - - - - - -
- - - - - - - - -
A - A - A - A - A
A - A - A - A - A
- - - - - - - - -
- - - - - - - - -
