36
#
- - - - - - - - -
- X - - X - - X -
- - - - - - - - -
- - - - - - - - -
- - - - - - - - -
- - - - - - - - -
- - - - - - - - -
- - - - - - - - -
- - - - - - - - -
##
- - - - - - - - -
- - * * - * * - -
- 0 - - 1 - - 0 -
- - - - - - - - -
- - - - * - - - -
- I - - - - - I -
- * - - - - - * -
- - - - I - - - -
- - - - - - - - -
