39
##
- 2 - - - - - 2 -
- I - - - - - I -
- 1 - - - - - 0 -
- M0 - - L - - M1 -
- M2 - L - L - M2 -
- M1 - - L - - M0 -
- 0 - - - - - 1 -
- I - - - - - I -
- 2 0 1 2 0 1 2 -
###
- - - - - - - - -
- L - - - - - L -
- - - - - - - - -
- - - - - - - - -
- L - - - - - L -
- - - - - - - - -
- - - - - - - - -
- L - - - - - L -
- - - - - - - - -
