32
#
- - - - - - - - -
- - - X X X - - -
- - - - - - - - -
- - - - - - - - -
- - - - - - - - -
- - - - - - - - -
- - - - - - - - -
- - - - - - - - -
- - - - - - - - -
##
- - - - - - - - -
- * - - - - - * -
- - - 0 0 0 - - -
- - - * - * - - -
F - - - - - - F -
- - - * - * - - -
- - - - - - - - -
- * - - - - - * -
- - - - - - - - -
