35
##
- M0 M0 - - - M1 M1 -
- M0 - - - - - M1 -
- - - B - B - - -
- - - - A - - - -
- - G - - - G - -
- - - G G G - - -
- - - - - - - - -
- - - - - - - - -
- - - - - - - - -
###
- - - - - - - - -
- - - - - - - - -
- - - - - - - - -
- - - - - - - - -
- - L - - - L - -
- - - L L L - - -
- - - - - - - - -
- - - - - - - - -
- - - - - - - - -
