25
#
- - - - - - - - -
- - - X X X - - -
- - - - - - - - -
- - - - - - - - -
- - - - - - - - -
- - - - - - - - -
- - - - - - - - -
- - - - - - - - -
- - - - - - - - -
##
* - - - - - - - *
- B - - - - - B -
- - I I - I I - -
- - - I I I - - -
- - - B B B - - -
- - - I - I - - -
- - I N - N I - -
- B - - - - - B -
* - - - - - - - *
