28
#
- - - - - - - - -
- X - - X - - X -
- - - - - - - - -
- - - - - - - - -
- - - - - - - - -
- - - - - - - - -
- - - - - - - - -
- - - - - - - - -
- - - - - - - - -
##
- - - - - - - - -
- - * * - * * - -
- B M2 B - B M2 B -
- - B - - - B - -
- - - - - - - - -
- - - - - - - - -
- - M1 - - - M1 - -
- - - M1 M1 M1 - - -
- - - - - - - - -
