%YAML 1.1
%TAG !u! tag:unity3d.com,2011:
--- !u!687078895 &4343727234628468602
SpriteAtlas:
  m_ObjectHideFlags: 0
  m_CorrespondingSourceObject: {fileID: 0}
  m_PrefabInstance: {fileID: 0}
  m_PrefabAsset: {fileID: 0}
  m_Name: combos
  m_EditorData:
    serializedVersion: 2
    textureSettings:
      serializedVersion: 2
      anisoLevel: 1
      compressionQuality: 50
      maxTextureSize: 2048
      textureCompression: 0
      filterMode: 1
      generateMipMaps: 0
      readable: 0
      crunchedCompression: 0
      sRGB: 1
    platformSettings: []
    packingSettings:
      serializedVersion: 2
      padding: 4
      blockOffset: 1
      allowAlphaSplitting: 0
      enableRotation: 1
      enableTightPacking: 1
    secondaryTextureSettings: {}
    variantMultiplier: 1
    packables:
    - {fileID: 2800000, guid: dcff9c8ad07dc4d71a74de087faf8550, type: 3}
    - {fileID: 2800000, guid: 691d3931ac16c45d787aca3520f54a69, type: 3}
    - {fileID: 2800000, guid: 8956280e3a8214b738950123aa37f92c, type: 3}
    - {fileID: 2800000, guid: 0b0b1601f78674c5b8aca5abf4f5118f, type: 3}
    - {fileID: 2800000, guid: 8bba411d8c1c1449bb132a0ccfb92dc2, type: 3}
    - {fileID: 2800000, guid: 5ce4de431e49146b0bd726c4b7b83d05, type: 3}
    totalSpriteSurfaceArea: 51936
    bindAsDefault: 1
    isAtlasV2: 0
    cachedData: {fileID: 0}
  m_MasterAtlas: {fileID: 0}
  m_PackedSprites:
  - {fileID: 21300000, guid: 0b0b1601f78674c5b8aca5abf4f5118f, type: 3}
  - {fileID: 21300000, guid: 691d3931ac16c45d787aca3520f54a69, type: 3}
  - {fileID: 21300000, guid: 5ce4de431e49146b0bd726c4b7b83d05, type: 3}
  - {fileID: 21300000, guid: dcff9c8ad07dc4d71a74de087faf8550, type: 3}
  - {fileID: 21300000, guid: 8bba411d8c1c1449bb132a0ccfb92dc2, type: 3}
  - {fileID: 21300000, guid: 8956280e3a8214b738950123aa37f92c, type: 3}
  m_PackedSpriteNamesToIndex:
  - dynamite
  - combo_item_2
  - rocket
  - bomb
  - firework
  - disco
  m_RenderDataMap: {}
  m_Tag: combos
  m_IsVariant: 0
